…
## Once the package has been installed as described above, all you need to use it is:
library(SankeyPRO)
```

## Using *SankeyPRO*
The input PRO data should be in so-called long format, with a single entry for every subject for every time point, e.g.

```
> pro
# A tibble: 500 × 3
      id  time   pro
   <dbl> <int> <int>
 1   547     1     0
 2   547     2     1
 3   547     3     3
 4   658     1     1
 5   385     1     1
 6   385     2     2
 7   385     3     1
 8   385     4     1
 9   202     1     2
10   202     2     2
# … with 490 more rows
```
…
